{
    "levels": [
      {
        "level_number": 1,
        "puzzle_piece":[
                {
                    "shape": "Rectangle",
                    "puzzle_piece_data": [
                    {
                        "color": "Red",
                        "set": 1
                    },
                    {
                        "color": "Blue",
                        "set": 2
                    },
                    {
                        "color": "Green",
                        "set": 1
                    },
                    {
                        "color": "Orange",
                        "set": 2
                    }
                    ]
                },
                {
                    "shape": "Circle",
                    "puzzle_piece_data": [
                    {
                        "color": "Blue",
                        "set": 2
                    },
                    {
                        "color": "Green",
                        "set": 1
                    },
                    {
                        "color": "Orange",
                        "set": 2
                    }
                    ]
                },
                {
                    "shape": "Triangle",
                    "puzzle_piece_data": [
                    {
                        "color": "Red",
                        "set": 2
                    },
                    {
                        "color": "Green",
                        "set": 1
                    },
                    {
                        "color": "Orange",
                        "set": 2
                    }
                    ]
                },
                {
                    "shape": "Pentagon",
                    "puzzle_piece_data": [
                    {
                        "color": "Red",
                        "set": 2
                    },
                    {
                        "color": "Blue",
                        "set": 1
                    }
                    ]
                }
            ],
        "slot_piece":[
            {
                "shape": "Triangle",
                "puzzle_piece_data": [
                {
                    "color": "NoColor",
                    "set": 1
                }
                ]
            },
            {
                "shape": "Circle",
                "puzzle_piece_data": [
                {
                    "color": "NoColor",
                    "set": 1
                }
                ]
            },
            {
                "shape": "Rectangle",
                "puzzle_piece_data": [
                {
                    "color": "NoColor",
                    "set": 1
                }
                ]
            },
            {
                "shape": "Pentagon",
                "puzzle_piece_data": [
                {
                    "color": "NoColor",
                    "set": 1
                }
                ]
            }
        ]
        
      }
    ]
}